{
  "type": "service_account",
  "project_id": "tracktrip-267316",
  "private_key_id": "c43281222bbd4565ead61bac4c7d762f26a9a1f0",
  "private_key": "-----BEGIN PRIVATE KEY-----\nMIIEvQIBADANBgkqhkiG9w0BAQEFAASCBKcwggSjAgEAAoIBAQDqCkNC9TVXOKOX\nnIvRxsE1KfDjNPMnhFQ/ZlCbT2Fz7GpIOtl8ZkcR9N7bVnjCzY+EbgnXpNiZRQ9r\nkjkR9vzTj7RadigzYCGG86+oZXKykPlkCBiTeSBBzVsSkEifCf3ee+L8AxnqlVt9\nzANihvhjbdIJWQmb+uNsYka7A0rm+nmNZBzR1HRAWP8ZH0BBoUWWz4SbBtgqY1QW\ngS6Xm8qJHkheZQn4QA0edTdJhp7qRW/UQIfytY3el18uV6rky/Vpu8G68VoIvtrR\nKZJQpsdko9AjIuRREtcB+hjBdHd61AQKMFDYWDEEcCzv7bFJ9OPp/NEhyUKfDT5P\nY4d955DRAgMBAAECggEAB6kVlcbbK7tQvn0LJg8GgrAYYIV6ioH2NHuLuqOs5cuY\nmHvlo8DgxWWRmFYSnpS2JIBqDc8JYG3uYOfgupXuJVocLgRVUUYtnsJR7vYAHLhq\nU1QBAu25aLH5L8i9ecgs0TgWoEdVNTSVka7ocvSGQ5HkCLaLfhmmkUT/ue4UCO6c\nm9YCNMdkbG/TnN1eMKRTD/AI4hZsAwNf/ob0+5W2HpvrWbAGOIvldJXeQ4BpqwUL\nT6Rt4lFHBraK1jnKnkOK8vWBYXDYZMV/2g8rd4n6EkNMiTlsccxWfKJcyrWqPL3O\nExHXMI1EYROvaQwx8ebOt7kGxYUOBlgD1ExWdkvvqQKBgQD+q7/GJvRvnk8KDM0o\n4h7DQlksLXxf4Wa/3gMJAbEI/md08GJ0Scoi5GkEVPZrf5veE9/6UFgs2OJjF5JN\nZQEP3xXkM1EUqcZyRqcn9NSf7oqkD5+8FRL7khHHF1eZoFXpygnGmGswA2fATd69\neFyb1Phbj0bfjhQ+UqNAFrPceQKBgQDrQvMz3EFcWoYvQ22q1PQzgRGwM/uAz45x\nHc+j4zJSKLdWgynItLoWgRODAOTaQzXBOgfo+Ynd6cIbMJuVu1L+bIFG3nbGdBdo\nQChmXZ4jb0+4RL67jGqDcR5vCyBwMNwxzjDNXJZqcegCkkNX/lE+sgKnqO+q6Ai/\nRHg514sRGQKBgQDnLjm0QwB5opfVY7GJf1q1nbEdLV1OHGsNmRfgQSzYITkBKoX1\nUlawPfAnAol/JCP2AMy9idnBPFCl62vf3eSM59ITiZH80/FVI1XyK4oodH5eV+CE\n+Ax3Wi3RMRtQVgAnbkRZh1smBrFUHFwqWuyWeUnKs9F+dpdhy9pt/y3e4QKBgBiN\nzERFYKz65bZZG0ERKMuXVPlG86DmCL/VlK5OMBpTFY958Qp5klJ29kpd9YSyLxIT\ntG+kW7dFhnTABf0CqA7V1EhJP6xGwYqn54+HhdG89F0PD7kTVqqRS9PbHW+YKeMo\n2f8VAr3pVYWvLkgoyuH4Qj6taxYzUXZk9wdSb7lBAoGAKsS86np4y4NC/A+bbfq5\nhcfclE22IFS8FFOO2Dd54Nn1LeQpGjU3tdAH0xVuYF9dtwqJYprDejDh6wYajfzP\nClvI5LWRtMK/mLCg6pLiHubm/FvQgvNh0UCvbJNCvO8kb4TDRwGx+ZVzf8q7AE7c\nJulSupH24aTU4z7NHLY1fpo=\n-----END PRIVATE KEY-----\n",
  "client_email": "digladieux@tracktrip-267316.iam.gserviceaccount.com",
  "client_id": "117510358600107671078",
  "auth_uri": "https://accounts.google.com/o/oauth2/auth",
  "token_uri": "https://oauth2.googleapis.com/token",
  "auth_provider_x509_cert_url": "https://www.googleapis.com/oauth2/v1/certs",
  "client_x509_cert_url": "https://www.googleapis.com/robot/v1/metadata/x509/digladieux%40tracktrip-267316.iam.gserviceaccount.com"
}